D:\Sandeep\Selenium\Workspaces25\Frontstream_CM-Admin\src\main\java\Frontstream\framework\GetExcutionClass.java
D:\Sandeep\Selenium\Workspaces25\Frontstream_CM-Admin\src\main\java\com\automation\support\ExceptionHandler.java
D:\Sandeep\Selenium\Workspaces25\Frontstream_CM-Admin\src\main\java\Frontstream\framework\GlobalVariables.java
D:\Sandeep\Selenium\Workspaces25\Frontstream_CM-Admin\src\main\java\com\automation\report\BrowserContext.java
D:\Sandeep\Selenium\Workspaces25\Frontstream_CM-Admin\src\main\java\com\automation\report\TestResult.java
D:\Sandeep\Selenium\Workspaces25\Frontstream_CM-Admin\src\main\java\com\automation\dataDriver\DataTable.java
D:\Sandeep\Selenium\Workspaces25\Frontstream_CM-Admin\src\main\java\Frontstream\framework\ExcelReadUtilPoi.java
D:\Sandeep\Selenium\Workspaces25\Frontstream_CM-Admin\src\main\java\Frontstream\enumeration\ActionType.java
D:\Sandeep\Selenium\Workspaces25\Frontstream_CM-Admin\src\main\java\com\automation\dataDriver\ExcelFileReadWrite.java
D:\Sandeep\Selenium\Workspaces25\Frontstream_CM-Admin\src\main\java\com\automation\report\CReporter.java
D:\Sandeep\Selenium\Workspaces25\Frontstream_CM-Admin\src\main\java\com\automation\utilities\Zip.java
D:\Sandeep\Selenium\Workspaces25\Frontstream_CM-Admin\src\main\java\com\automation\utilities\Locator.java
D:\Sandeep\Selenium\Workspaces25\Frontstream_CM-Admin\src\main\java\com\automation\accelerators\ActionEngine.java
D:\Sandeep\Selenium\Workspaces25\Frontstream_CM-Admin\src\main\java\com\automation\report\ConfigFileReadWrite.java
D:\Sandeep\Selenium\Workspaces25\Frontstream_CM-Admin\src\main\java\com\automation\support\IFrameworkConstant.java
D:\Sandeep\Selenium\Workspaces25\Frontstream_CM-Admin\src\main\java\com\automation\page\Page.java
D:\Sandeep\Selenium\Workspaces25\Frontstream_CM-Admin\src\main\java\com\automation\accelerators\TestEngineWeb.java
D:\Sandeep\Selenium\Workspaces25\Frontstream_CM-Admin\src\main\java\com\automation\utilities\ReadMail.java
D:\Sandeep\Selenium\Workspaces25\Frontstream_CM-Admin\src\main\java\com\automation\report\ReporterConstants.java
